{
  "development": {
    "username": "root",
    "password": "atheneum",
    "database": "atheneum",
    "connectionLimit": 16,
    "host": "ec2-34-254-242-127.eu-west-1.compute.amazonaws.com",
    "port": 3306,
    "dialect": "mysql",
    "operatorsAliases": false,
    "seederStorage": "sequelize"
  },
  "test": {
    "username": "root",
    "password": "atheneum",
    "database": "atheneum",
    "connectionLimit": 16,
    "host": "ec2-34-254-242-127.eu-west-1.compute.amazonaws.com",
    "port": 3306,
    "dialect": "mysql",
    "operatorsAliases": false
  },
  "production": {
    "username": "root",
    "password": "root",
    "database": "atheneum",
    "connectionLimit": 16,
    "host": "mysql",
    "port": 3306,
    "dialect": "mysql",
    "operatorsAliases": false,
    "use_env_variable": "DB_HOST"
  }
}
